diviseurProgrammable/diviseurProg.vcd
$date
  Fri Nov 18 18:35:24 2016
$end
$version
  GHDL v0
$end
$timescale
  1 fs
$end
$var reg 16 ! clkdiv[15:0] $end
$var reg 1 " phase $end
$var reg 1 # polarite $end
$var reg 1 $ rst $end
$var reg 1 % clk $end
$var reg 1 & clk_out $end
$var reg 1 ' tc $end
$scope module u_diviseurprog_tb $end
$var reg 16 ( clkdiv[15:0] $end
$var reg 1 ) phase $end
$var reg 1 * polarite $end
$var reg 1 + rst $end
$var reg 1 , clk $end
$var reg 1 - clk_out $end
$var reg 1 . tc $end
$var reg 16 / cpt1[15:0] $end
$var reg 16 0 cpt2[15:0] $end
$var reg 16 1 cpt[15:0] $end
$var reg 16 2 half_clkdiv[15:0] $end
$upscope $end
$enddefinitions $end
#0
b0000000000001000 !
0"
0#
1$
0%
1&
0'
b0000000000001000 (
0)
0*
1+
0,
1-
0.
bUUUUUUUUUUUUUUUU /
bUUUUUUUUUUUUUUUU 0
bUUUUUUUUUUUUUUUU 1
b0000000000000100 2
#5000000
1%
0&
1,
0-
b0000000000000000 /
b0000000000000000 0
b0000000000000000 1
#10000000
0$
0%
0+
0,
#15000000
1%
1,
b0000000000000001 /
b0000000000000001 1
#20000000
0%
0,
#25000000
1%
1,
b0000000000000010 /
b0000000000000010 1
#30000000
0%
0,
#35000000
1%
1,
b0000000000000011 /
b0000000000000011 1
#40000000
0%
0,
#45000000
1%
1&
1,
1-
b0000000000000100 /
b0000000000000100 1
#50000000
0%
0,
#55000000
1%
1,
b0000000000000101 /
b0000000000000101 1
#60000000
0%
0,
#65000000
1%
1,
b0000000000000110 /
b0000000000000110 1
#70000000
0%
0,
#75000000
1%
1'
1,
1.
b0000000000000111 /
b0000000000000111 1
#80000000
0%
0,
#85000000
1%
0&
0'
1,
0-
0.
b0000000000000000 /
b0000000000000000 1
#90000000
0%
0,
#95000000
1%
1,
b0000000000000001 /
b0000000000000001 1
#100000000
0%
0,
#105000000
1%
1,
b0000000000000010 /
b0000000000000010 1
#110000000
0%
0,
#115000000
1%
1,
b0000000000000011 /
b0000000000000011 1
#120000000
0%
0,
#125000000
1%
1&
1,
1-
b0000000000000100 /
b0000000000000100 1
#130000000
0%
0,
#135000000
1%
1,
b0000000000000101 /
b0000000000000101 1
#140000000
0%
0,
#145000000
1%
1,
b0000000000000110 /
b0000000000000110 1
#150000000
0%
0,
#155000000
1%
1'
1,
1.
b0000000000000111 /
b0000000000000111 1
#160000000
0%
0,
#165000000
1%
0&
0'
1,
0-
0.
b0000000000000000 /
b0000000000000000 1
#170000000
0%
0,
#175000000
1%
1,
b0000000000000001 /
b0000000000000001 1
#180000000
0%
0,
#185000000
1%
1,
b0000000000000010 /
b0000000000000010 1
#190000000
0%
0,
#195000000
1%
1,
b0000000000000011 /
b0000000000000011 1
#200000000
0%
0,
#205000000
1%
1&
1,
1-
b0000000000000100 /
b0000000000000100 1
#210000000
0%
0,
#215000000
1%
1,
b0000000000000101 /
b0000000000000101 1
#220000000
0%
0,
#225000000
1%
1,
b0000000000000110 /
b0000000000000110 1
#230000000
0%
0,
#235000000
1%
1'
1,
1.
b0000000000000111 /
b0000000000000111 1
#240000000
0%
0,
#245000000
1%
0&
0'
1,
0-
0.
b0000000000000000 /
b0000000000000000 1
#250000000
1"
0%
1)
0,
b0000000000000001 0
b0000000000000001 1
#255000000
1%
1,
#260000000
0%
0,
b0000000000000010 0
b0000000000000010 1
#265000000
1%
1,
#270000000
0%
0,
b0000000000000011 0
b0000000000000011 1
#275000000
1%
1,
#280000000
0%
1&
0,
1-
b0000000000000100 0
b0000000000000100 1
#285000000
1%
1,
#290000000
0%
0,
b0000000000000101 0
b0000000000000101 1
#295000000
1%
1,
#300000000
0%
0,
b0000000000000110 0
b0000000000000110 1
#305000000
1%
1,
#310000000
0%
1'
0,
1.
b0000000000000111 0
b0000000000000111 1
#315000000
1%
1,
#320000000
0%
0&
0'
0,
0-
0.
b0000000000000000 0
b0000000000000000 1
#325000000
1%
1,
#330000000
0%
0,
b0000000000000001 0
b0000000000000001 1
#335000000
1%
1,
#340000000
0%
0,
b0000000000000010 0
b0000000000000010 1
#345000000
1%
1,
#350000000
0%
0,
b0000000000000011 0
b0000000000000011 1
#355000000
1%
1,
#360000000
0%
1&
0,
1-
b0000000000000100 0
b0000000000000100 1
#365000000
1%
1,
#370000000
0%
0,
b0000000000000101 0
b0000000000000101 1
#375000000
1%
1,
#380000000
0%
0,
b0000000000000110 0
b0000000000000110 1
#385000000
1%
1,
#390000000
0%
1'
0,
1.
b0000000000000111 0
b0000000000000111 1
#395000000
1%
1,
#400000000
0%
0&
0'
0,
0-
0.
b0000000000000000 0
b0000000000000000 1
#405000000
1%
1,
#410000000
0%
0,
b0000000000000001 0
b0000000000000001 1
#415000000
1%
1,
#420000000
0%
0,
b0000000000000010 0
b0000000000000010 1
#425000000
1%
1,
#430000000
0%
0,
b0000000000000011 0
b0000000000000011 1
#435000000
1%
1,
#440000000
0%
1&
0,
1-
b0000000000000100 0
b0000000000000100 1
#445000000
1%
1,
#450000000
0%
0,
b0000000000000101 0
b0000000000000101 1
#455000000
1%
1,
#460000000
0%
0,
b0000000000000110 0
b0000000000000110 1
#465000000
1%
1,
#470000000
0%
1'
0,
1.
b0000000000000111 0
b0000000000000111 1
#475000000
1%
1,
#480000000
0%
0&
0'
0,
0-
0.
b0000000000000000 0
b0000000000000000 1
#485000000
1%
1,
#490000000
0%
0,
b0000000000000001 0
b0000000000000001 1
#495000000
1%
1,
#500000000
0"
1#
0%
1&
0)
1*
0,
1-
b0000000000000000 1
#505000000
1%
1,
b0000000000000001 /
b0000000000000001 1
#510000000
0%
0,
#515000000
1%
1,
b0000000000000010 /
b0000000000000010 1
#520000000
0%
0,
#525000000
1%
1,
b0000000000000011 /
b0000000000000011 1
#530000000
0%
0,
#535000000
1%
0&
1,
0-
b0000000000000100 /
b0000000000000100 1
#540000000
0%
0,
#545000000
1%
1,
b0000000000000101 /
b0000000000000101 1
#550000000
0%
0,
#555000000
1%
1,
b0000000000000110 /
b0000000000000110 1
#560000000
0%
0,
#565000000
1%
1'
1,
1.
b0000000000000111 /
b0000000000000111 1
#570000000
0%
0,
#575000000
1%
1&
0'
1,
1-
0.
b0000000000000000 /
b0000000000000000 1
#580000000
0%
0,
#585000000
1%
1,
b0000000000000001 /
b0000000000000001 1
#590000000
0%
0,
#595000000
1%
1,
b0000000000000010 /
b0000000000000010 1
#600000000
0%
0,
#605000000
1%
1,
b0000000000000011 /
b0000000000000011 1
#610000000
0%
0,
#615000000
1%
0&
1,
0-
b0000000000000100 /
b0000000000000100 1
#620000000
0%
0,
#625000000
1%
1,
b0000000000000101 /
b0000000000000101 1
#630000000
0%
0,
#635000000
1%
1,
b0000000000000110 /
b0000000000000110 1
#640000000
0%
0,
#645000000
1%
1'
1,
1.
b0000000000000111 /
b0000000000000111 1
#650000000
0%
0,
#655000000
1%
1&
0'
1,
1-
0.
b0000000000000000 /
b0000000000000000 1
#660000000
0%
0,
#665000000
1%
1,
b0000000000000001 /
b0000000000000001 1
#670000000
0%
0,
#675000000
1%
1,
b0000000000000010 /
b0000000000000010 1
#680000000
0%
0,
#685000000
1%
1,
b0000000000000011 /
b0000000000000011 1
#690000000
0%
0,
#695000000
1%
0&
1,
0-
b0000000000000100 /
b0000000000000100 1
#700000000
0%
0,
#705000000
1%
1,
b0000000000000101 /
b0000000000000101 1
#710000000
0%
0,
#715000000
1%
1,
b0000000000000110 /
b0000000000000110 1
#720000000
0%
0,
#725000000
1%
1'
1,
1.
b0000000000000111 /
b0000000000000111 1
#730000000
0%
0,
#735000000
1%
1&
0'
1,
1-
0.
b0000000000000000 /
b0000000000000000 1
#740000000
0%
0,
#745000000
1%
1,
b0000000000000001 /
b0000000000000001 1
#750000000
1"
0%
1)
0,
b0000000000000010 0
b0000000000000010 1
#755000000
1%
1,
#760000000
0%
0,
b0000000000000011 0
b0000000000000011 1
#765000000
1%
1,
#770000000
0%
0&
0,
0-
b0000000000000100 0
b0000000000000100 1
#775000000
1%
1,
#780000000
0%
0,
b0000000000000101 0
b0000000000000101 1
#785000000
1%
1,
#790000000
0%
0,
b0000000000000110 0
b0000000000000110 1
#795000000
1%
1,
#800000000
0%
1'
0,
1.
b0000000000000111 0
b0000000000000111 1
#805000000
1%
1,
#810000000
0%
1&
0'
0,
1-
0.
b0000000000000000 0
b0000000000000000 1
#815000000
1%
1,
#820000000
0%
0,
b0000000000000001 0
b0000000000000001 1
#825000000
1%
1,
#830000000
0%
0,
b0000000000000010 0
b0000000000000010 1
#835000000
1%
1,
#840000000
0%
0,
b0000000000000011 0
b0000000000000011 1
#845000000
1%
1,
#850000000
0%
0&
0,
0-
b0000000000000100 0
b0000000000000100 1
#855000000
1%
1,
#860000000
0%
0,
b0000000000000101 0
b0000000000000101 1
#865000000
1%
1,
#870000000
0%
0,
b0000000000000110 0
b0000000000000110 1
#875000000
1%
1,
#880000000
0%
1'
0,
1.
b0000000000000111 0
b0000000000000111 1
#885000000
1%
1,
#890000000
0%
1&
0'
0,
1-
0.
b0000000000000000 0
b0000000000000000 1
#895000000
1%
1,
#900000000
0%
0,
b0000000000000001 0
b0000000000000001 1
#905000000
1%
1,
#910000000
0%
0,
b0000000000000010 0
b0000000000000010 1
#915000000
1%
1,
#920000000
0%
0,
b0000000000000011 0
b0000000000000011 1
#925000000
1%
1,
#930000000
0%
0&
0,
0-
b0000000000000100 0
b0000000000000100 1
#935000000
1%
1,
#940000000
0%
0,
b0000000000000101 0
b0000000000000101 1
#945000000
1%
1,
#950000000
0%
0,
b0000000000000110 0
b0000000000000110 1
#955000000
1%
1,
#960000000
0%
1'
0,
1.
b0000000000000111 0
b0000000000000111 1
#965000000
1%
1,
#970000000
0%
1&
0'
0,
1-
0.
b0000000000000000 0
b0000000000000000 1
#975000000
1%
1,
#980000000
0%
0,
b0000000000000001 0
b0000000000000001 1
#985000000
1%
1,
#990000000
0%
0,
b0000000000000010 0
b0000000000000010 1
#995000000
1%
1,
#1000000000
0%
0,
b0000000000000011 0
b0000000000000011 1
