compteur.vcd
$date
  Tue Nov 15 20:17:16 2016
$end
$version
  GHDL v0
$end
$timescale
  1 fs
$end
$var reg 1 ! clk $end
$var reg 1 " reset $end
$var reg 4 # q[3:0] $end
$scope module cpt_tb $end
$var reg 1 $ clk $end
$var reg 1 % reset $end
$var reg 4 & q[3:0] $end
$var reg 4 ' cpt[3:0] $end
$upscope $end
$enddefinitions $end
#0
0!
1"
b0000 #
0$
1%
b0000 &
b0000 '
#5000000
1!
1$
#10000000
0!
0"
0$
0%
#15000000
1!
b0001 #
1$
b0001 &
b0001 '
#20000000
0!
0$
#25000000
1!
b0010 #
1$
b0010 &
b0010 '
#30000000
0!
0$
#35000000
1!
b0011 #
1$
b0011 &
b0011 '
#40000000
0!
0$
#45000000
1!
b0100 #
1$
b0100 &
b0100 '
#50000000
0!
0$
#55000000
1!
b0101 #
1$
b0101 &
b0101 '
#60000000
0!
0$
#65000000
1!
b0110 #
1$
b0110 &
b0110 '
#70000000
0!
0$
#75000000
1!
b0111 #
1$
b0111 &
b0111 '
#80000000
0!
0$
#85000000
1!
b1000 #
1$
b1000 &
b1000 '
#90000000
0!
0$
#95000000
1!
b1001 #
1$
b1001 &
b1001 '
#100000000
0!
0$
#105000000
1!
b0000 #
1$
b0000 &
b0000 '
#110000000
0!
0$
#115000000
1!
b0001 #
1$
b0001 &
b0001 '
#120000000
0!
0$
#125000000
1!
b0010 #
1$
b0010 &
b0010 '
#130000000
0!
0$
#135000000
1!
b0011 #
1$
b0011 &
b0011 '
#140000000
0!
0$
#145000000
1!
b0100 #
1$
b0100 &
b0100 '
#150000000
0!
0$
#155000000
1!
b0101 #
1$
b0101 &
b0101 '
#160000000
0!
0$
#165000000
1!
b0110 #
1$
b0110 &
b0110 '
#170000000
0!
0$
#175000000
1!
b0111 #
1$
b0111 &
b0111 '
#180000000
0!
0$
#185000000
1!
b1000 #
1$
b1000 &
b1000 '
#190000000
0!
0$
#195000000
1!
b1001 #
1$
b1001 &
b1001 '
#200000000
0!
0$
#205000000
1!
b0000 #
1$
b0000 &
b0000 '
#210000000
0!
0$
#215000000
1!
b0001 #
1$
b0001 &
b0001 '
#220000000
0!
0$
#225000000
1!
b0010 #
1$
b0010 &
b0010 '
#230000000
0!
0$
#235000000
1!
b0011 #
1$
b0011 &
b0011 '
#240000000
0!
0$
#245000000
1!
b0100 #
1$
b0100 &
b0100 '
#250000000
0!
0$
#255000000
1!
b0101 #
1$
b0101 &
b0101 '
#260000000
0!
0$
#265000000
1!
b0110 #
1$
b0110 &
b0110 '
#270000000
0!
0$
#275000000
1!
b0111 #
1$
b0111 &
b0111 '
#280000000
0!
0$
#285000000
1!
b1000 #
1$
b1000 &
b1000 '
#290000000
0!
0$
#295000000
1!
b1001 #
1$
b1001 &
b1001 '
#300000000
0!
0$
#305000000
1!
b0000 #
1$
b0000 &
b0000 '
#310000000
0!
0$
#315000000
1!
b0001 #
1$
b0001 &
b0001 '
#320000000
0!
0$
#325000000
1!
b0010 #
1$
b0010 &
b0010 '
#330000000
0!
0$
#335000000
1!
b0011 #
1$
b0011 &
b0011 '
#340000000
0!
0$
#345000000
1!
b0100 #
1$
b0100 &
b0100 '
#350000000
0!
0$
#355000000
1!
b0101 #
1$
b0101 &
b0101 '
#360000000
0!
0$
#365000000
1!
b0110 #
1$
b0110 &
b0110 '
#370000000
0!
0$
#375000000
1!
b0111 #
1$
b0111 &
b0111 '
#380000000
0!
0$
#385000000
1!
b1000 #
1$
b1000 &
b1000 '
#390000000
0!
0$
#395000000
1!
b1001 #
1$
b1001 &
b1001 '
#400000000
0!
0$
#405000000
1!
b0000 #
1$
b0000 &
b0000 '
#410000000
0!
0$
#415000000
1!
b0001 #
1$
b0001 &
b0001 '
#420000000
0!
0$
#425000000
1!
b0010 #
1$
b0010 &
b0010 '
#430000000
0!
0$
#435000000
1!
b0011 #
1$
b0011 &
b0011 '
#440000000
0!
0$
#445000000
1!
b0100 #
1$
b0100 &
b0100 '
#450000000
0!
0$
#455000000
1!
b0101 #
1$
b0101 &
b0101 '
#460000000
0!
0$
#465000000
1!
b0110 #
1$
b0110 &
b0110 '
#470000000
0!
0$
#475000000
1!
b0111 #
1$
b0111 &
b0111 '
#480000000
0!
0$
#485000000
1!
b1000 #
1$
b1000 &
b1000 '
#490000000
0!
0$
#495000000
1!
b1001 #
1$
b1001 &
b1001 '
