diviseurGenerique/diviseurGenFreq.vcd
$date
  Fri Nov 18 18:29:37 2016
$end
$version
  GHDL v0
$end
$timescale
  1 fs
$end
$var reg 1 ! clk $end
$var reg 1 " reset $end
$var reg 1 # enable $end
$var reg 1 $ clk_out $end
$var reg 1 % tc0 $end
$var reg 1 & tc1 $end
$scope module u_diviseurgenfreq_tb $end
$var reg 1 ' clk $end
$var reg 1 ( reset $end
$var reg 1 ) enable $end
$var reg 1 * clk_out $end
$var reg 1 + tc0 $end
$var reg 1 , tc1 $end
$var reg 3 - cpt[2:0] $end
$upscope $end
$enddefinitions $end
#0
0!
1"
U#
1$
0%
0&
0'
1(
U)
1*
0+
0,
bUUU -
#5000000
1!
0$
1'
0*
b000 -
#10000000
0!
0"
0'
0(
#15000000
1!
1'
#20000000
0!
1#
0'
1)
#25000000
1!
1'
b001 -
#30000000
0!
0'
#35000000
1!
1'
b010 -
#40000000
0!
0'
#45000000
1!
1%
1'
1+
b011 -
#50000000
0!
0'
#55000000
1!
1$
0%
1'
1*
0+
b100 -
#60000000
0!
0'
#65000000
1!
1'
b101 -
#70000000
0!
0'
#75000000
1!
1'
b110 -
#80000000
0!
0'
#85000000
1!
1&
1'
1,
b111 -
#90000000
0!
0'
#95000000
1!
0$
0&
1'
0*
0,
b000 -
#100000000
0!
0'
#105000000
1!
1'
b001 -
#110000000
0!
0'
#115000000
1!
1'
b010 -
#120000000
0!
0'
#125000000
1!
1%
1'
1+
b011 -
#130000000
0!
0'
#135000000
1!
1$
0%
1'
1*
0+
b100 -
#140000000
0!
0'
#145000000
1!
1'
b101 -
#150000000
0!
0'
#155000000
1!
1'
b110 -
#160000000
0!
0'
#165000000
1!
1&
1'
1,
b111 -
#170000000
0!
0'
#175000000
1!
0$
0&
1'
0*
0,
b000 -
#180000000
0!
0'
#185000000
1!
1'
b001 -
#190000000
0!
0'
#195000000
1!
1'
b010 -
#200000000
0!
0'
#205000000
1!
1%
1'
1+
b011 -
#210000000
0!
0'
#215000000
1!
1$
0%
1'
1*
0+
b100 -
#220000000
0!
0'
#225000000
1!
1'
b101 -
#230000000
0!
0'
#235000000
1!
1'
b110 -
#240000000
0!
0'
#245000000
1!
1&
1'
1,
b111 -
#250000000
0!
0'
#255000000
1!
0$
0&
1'
0*
0,
b000 -
#260000000
0!
0'
#265000000
1!
1'
b001 -
#270000000
0!
0'
#275000000
1!
1'
b010 -
#280000000
0!
0'
#285000000
1!
1%
1'
1+
b011 -
#290000000
0!
0'
#295000000
1!
1$
0%
1'
1*
0+
b100 -
#300000000
0!
0'
#305000000
1!
1'
b101 -
#310000000
0!
0'
#315000000
1!
1'
b110 -
#320000000
0!
0'
#325000000
1!
1&
1'
1,
b111 -
#330000000
0!
0'
#335000000
1!
0$
0&
1'
0*
0,
b000 -
#340000000
0!
0'
#345000000
1!
1'
b001 -
#350000000
0!
0'
#355000000
1!
1'
b010 -
#360000000
0!
0'
#365000000
1!
1%
1'
1+
b011 -
#370000000
0!
0'
#375000000
1!
1$
0%
1'
1*
0+
b100 -
#380000000
0!
0'
#385000000
1!
1'
b101 -
#390000000
0!
0'
#395000000
1!
1'
b110 -
#400000000
0!
0'
#405000000
1!
1&
1'
1,
b111 -
#410000000
0!
0'
#415000000
1!
0$
0&
1'
0*
0,
b000 -
#420000000
0!
0'
#425000000
1!
1'
b001 -
#430000000
0!
0'
#435000000
1!
1'
b010 -
#440000000
0!
0'
#445000000
1!
1%
1'
1+
b011 -
#450000000
0!
0'
#455000000
1!
1$
0%
1'
1*
0+
b100 -
#460000000
0!
0'
#465000000
1!
1'
b101 -
#470000000
0!
0'
#475000000
1!
1'
b110 -
#480000000
0!
0'
#485000000
1!
1&
1'
1,
b111 -
#490000000
0!
0'
#495000000
1!
0$
0&
1'
0*
0,
b000 -
