machine_etat_detection_front/detection.vcd
$date
  Wed Nov 16 17:47:51 2016
$end
$version
  GHDL v0
$end
$timescale
  1 fs
$end
$comment next_etat is not handled $end
$comment reg_etat is not handled $end
$var reg 1 ! clk $end
$var reg 1 " rst $end
$var reg 1 # entree $end
$var reg 1 $ tc $end
$scope module detect_tb $end
$var reg 1 % clk $end
$var reg 1 & rst $end
$var reg 1 ' entree $end
$var reg 1 ( tc $end
$comment next_etat is not handled $end
$comment reg_etat is not handled $end
$upscope $end
$enddefinitions $end
#0
0!
1"
0#
0$
0%
1&
0'
0(
#5000000
1!
1%
#10000000
0!
0"
0%
0&
#15000000
1!
1%
#20000000
0!
1#
0%
1'
#25000000
1!
1$
1%
1(
#30000000
0!
0%
#35000000
1!
0$
1%
0(
#40000000
0!
0#
0%
0'
#45000000
1!
1%
#50000000
0!
0%
#55000000
1!
1%
#60000000
0!
1#
0%
1'
#65000000
1!
1$
1%
1(
#70000000
0!
0%
#75000000
1!
0$
1%
0(
#80000000
0!
0#
0%
0'
#85000000
1!
1%
#90000000
0!
0%
#95000000
1!
1%
#100000000
0!
1#
0%
1'
#105000000
1!
1$
1%
1(
#110000000
0!
0%
#115000000
1!
0$
1%
0(
#120000000
0!
0#
0%
0'
#125000000
1!
1%
#130000000
0!
0%
#135000000
1!
1%
#140000000
0!
1#
0%
1'
#145000000
1!
1$
1%
1(
#150000000
0!
0%
#155000000
1!
0$
1%
0(
#160000000
0!
0#
0%
0'
#165000000
1!
1%
#170000000
0!
0%
#175000000
1!
1%
#180000000
0!
1#
0%
1'
#185000000
1!
1$
1%
1(
#190000000
0!
0%
#195000000
1!
0$
1%
0(
#200000000
0!
0#
0%
0'
#205000000
1!
1%
#210000000
0!
0%
#215000000
1!
1%
#220000000
0!
1#
0%
1'
#225000000
1!
1$
1%
1(
#230000000
0!
0%
#235000000
1!
0$
1%
0(
#240000000
0!
0#
0%
0'
#245000000
1!
1%
#250000000
0!
0%
#255000000
1!
1%
#260000000
0!
1#
0%
1'
#265000000
1!
1$
1%
1(
#270000000
0!
0%
#275000000
1!
0$
1%
0(
#280000000
0!
0#
0%
0'
#285000000
1!
1%
#290000000
0!
0%
#295000000
1!
1%
#300000000
0!
1#
0%
1'
#305000000
1!
1$
1%
1(
#310000000
0!
0%
#315000000
1!
0$
1%
0(
#320000000
0!
0#
0%
0'
#325000000
1!
1%
#330000000
0!
0%
#335000000
1!
1%
#340000000
0!
1#
0%
1'
#345000000
1!
1$
1%
1(
#350000000
0!
0%
#355000000
1!
0$
1%
0(
#360000000
0!
0#
0%
0'
#365000000
1!
1%
#370000000
0!
0%
#375000000
1!
1%
#380000000
0!
1#
0%
1'
#385000000
1!
1$
1%
1(
#390000000
0!
0%
#395000000
1!
0$
1%
0(
#400000000
0!
0#
0%
0'
#405000000
1!
1%
#410000000
0!
0%
#415000000
1!
1%
#420000000
0!
1#
0%
1'
#425000000
1!
1$
1%
1(
#430000000
0!
0%
#435000000
1!
0$
1%
0(
#440000000
0!
0#
0%
0'
#445000000
1!
1%
#450000000
0!
0%
#455000000
1!
1%
#460000000
0!
1#
0%
1'
#465000000
1!
1$
1%
1(
#470000000
0!
0%
#475000000
1!
0$
1%
0(
#480000000
0!
0#
0%
0'
#485000000
1!
1%
#490000000
0!
0%
#495000000
1!
1%
#500000000
0!
1#
0%
1'
